Cleaning Data
…
# Report the problems that were encountered when the data were imported.
problems(rawData)

## [1] row      col      expected actual  
## <0 rows> (or 0-length row.names)

# Display the imported table
rawData

## # A tibble: 10,767 x 24
##       X1 uuid  institutionCode collectionCode catalogNumber recordedBy
##    <dbl> <chr> <chr>           <chr>                  <dbl> <chr>     
##  1     1 0603 mvz             mammal specim        219088 collector
##  2     2 0fb1 mvz             mammal specim        233524 collector
##  3     3 1a69 mvz             mammal specim        234346 collector
##  4     4 1a99 mvz             mammal specim        233951 collector
##  5     5 1f3b mvz             mammal specim        235290 collector
##  6     6 203f uam             mammal specim         85106 collector
##  7     7 21ce omnh            mammals                50048 caldwell,
##  8     8 23d3 mvz             mammal specim        216309 collector
##  9     9 244b msb             mammal specim        294933 collector
## 10    10 2682 uam             mammal specim         50255 collector
## #  with 10,757 more rows, and 18 more variables: countryCode <chr>,
## #   stateProvince <chr>, county <chr>, decimalLatitude <dbl>,
## #   decimalLongitude <dbl>, eventDate <dttm>, year <dbl>, month <dbl>,
## #   day <dbl>, genus <chr>, specificEpithet <chr>, scientificName <chr>,
## #   weight <dbl>, length <dbl>, sex <chr>, latDMS <chr>, lonDMS <chr>,
## #   textLatDD <chr>
…
rawData %>%
  select(catalogNumber,textLatDD)

## # A tibble: 10,767 x 2
##    catalogNumber textLatDD    
##            <dbl> <chr>        
##  1        219088 37.7609527778
##  2        233524 37.8999569   
##  3        234346 37.8999569   
##  4        233951 37.8999569   
##  5        235290 37.8999569   
##  6         85106 43.2751187   
##  7         50048 34.53903     
##  8        216309 36.97099     
##  9        294933 36.584948    
## 10         50255 44.2611111111
## #  with 10,757 more rows

# test the creation of a numLatDD column as a numeric column and see what rows were converted to NA
rawData %>%
  mutate(numLatDD = as.numeric(rawData$textLatDD)) %>%
  filter(is.na(numLatDD)) %>%
  select(textLatDD, numLatDD) %>%
  print() %>%
  group_by(textLatDD) %>%
  summarize(count = n()) 

## Warning: NAs introduced by coercion

## # A tibble: 1,222 x 2
##    textLatDD numLatDD
##    <chr>        <dbl>
##  1 missing         NA
##  2 missing         NA
##  3 missing         NA
##  4 missing         NA
##  5 missing         NA
##  6 missing         NA
##  7 missing         NA
##  8 missing         NA
##  9 missing         NA
## 10 missing         NA
## #  with 1,212 more rows

## # A tibble: 1 x 2
##   textLatDD count
##   <chr>     <int>
## 1 missing    1222

# create a numeric column based on the previously tested conversion of the textLatDD column
rawData$numLatDD <- as.numeric(rawData$textLatDD)

## Warning: NAs introduced by coercion

rawData

## # A tibble: 10,767 x 25
##       X1 uuid  institutionCode collectionCode catalogNumber recordedBy
##    <dbl> <chr> <chr>           <chr>                  <dbl> <chr>     
##  1     1 0603 mvz             mammal specim        219088 collector
##  2     2 0fb1 mvz             mammal specim        233524 collector
##  3     3 1a69 mvz             mammal specim        234346 collector
##  4     4 1a99 mvz             mammal specim        233951 collector
##  5     5 1f3b mvz             mammal specim        235290 collector
##  6     6 203f uam             mammal specim         85106 collector
##  7     7 21ce omnh            mammals                50048 caldwell,
##  8     8 23d3 mvz             mammal specim        216309 collector
##  9     9 244b msb             mammal specim        294933 collector
## 10    10 2682 uam             mammal specim         50255 collector
## #  with 10,757 more rows, and 19 more variables: countryCode <chr>,
## #   stateProvince <chr>, county <chr>, decimalLatitude <dbl>,
## #   decimalLongitude <dbl>, eventDate <dttm>, year <dbl>, month <dbl>,
## #   day <dbl>, genus <chr>, specificEpithet <chr>, scientificName <chr>,
## #   weight <dbl>, length <dbl>, sex <chr>, latDMS <chr>, lonDMS <chr>,
## #   textLatDD <chr>, numLatDD <dbl>
…
# Report the problems that were encountered when the data were imported.
problems(rawData2)

## # A tibble: 1,222 x 5
##      row col       expected actual  file                  
##    <int> <chr>     <chr>    <chr>   <chr>                 
##  1    11 textLatDD a double missing '../data/learning.csv'
##  2    21 textLatDD a double missing '../data/learning.csv'
##  3    25 textLatDD a double missing '../data/learning.csv'
##  4    32 textLatDD a double missing '../data/learning.csv'
##  5    39 textLatDD a double missing '../data/learning.csv'
##  6    44 textLatDD a double missing '../data/learning.csv'
##  7    54 textLatDD a double missing '../data/learning.csv'
##  8    55 textLatDD a double missing '../data/learning.csv'
##  9    59 textLatDD a double missing '../data/learning.csv'
## 10    63 textLatDD a double missing '../data/learning.csv'
## #  with 1,212 more rows

# Display the imported table
rawData2

## # A tibble: 10,767 x 24
##       X1 uuid  institutionCode collectionCode catalogNumber recordedBy
##    <dbl> <chr> <chr>           <chr>                  <dbl> <chr>     
##  1     1 0603 mvz             mammal specim        219088 collector
##  2     2 0fb1 mvz             mammal specim        233524 collector
##  3     3 1a69 mvz             mammal specim        234346 collector
##  4     4 1a99 mvz             mammal specim        233951 collector
##  5     5 1f3b mvz             mammal specim        235290 collector
##  6     6 203f uam             mammal specim         85106 collector
##  7     7 21ce omnh            mammals                50048 caldwell,
##  8     8 23d3 mvz             mammal specim        216309 collector
##  9     9 244b msb             mammal specim        294933 collector
## 10    10 2682 uam             mammal specim         50255 collector
## #  with 10,757 more rows, and 18 more variables: countryCode <chr>,
## #   stateProvince <chr>, county <chr>, decimalLatitude <dbl>,
## #   decimalLongitude <dbl>, eventDate <dttm>, year <dbl>, month <dbl>,
## #   day <dbl>, genus <chr>, specificEpithet <chr>, scientificName <chr>,
## #   weight <dbl>, length <dbl>, sex <chr>, latDMS <chr>, lonDMS <chr>,
## #   textLatDD <dbl>
…
Each variable must have its own column.

Each observation must have its own row.

Each value must have its own cell.

this issue also relates to the idea of atomicity in Codds definition of First Normal Form when normalizing a relational database2. While were not going to get into relational data modeling in R here, well structured data allow for the use of relational data models in you analysis independent of a separate database server.

In this example we are going to focus on three columns: recordedBy, latDMS, and lonDMS.

rawData %>%
  select(recordedBy, latDMS, lonDMS)

## # A tibble: 10,767 x 3
##    recordedBy                                                latDMS            lonDMS             
##    <chr>                                                     <chr>             <chr>              
##  1 collector(s): ana lilia trujano lvarez, eric ghilarducci "3745'39.430\"N" "-122 6'48.370\"E"
##  2 collector(s): william z. lidicker jr.                     "3753'59.845\"N" "-12338'18.039\"E"
##  3 collector(s): william z. lidicker jr.                     "3753'59.845\"N" "-12338'18.039\"E"
##  4 collector(s): william z. lidicker jr.                     "3753'59.845\"N" "-12338'18.039\"E"
##  5 collector(s): william z. lidicker jr.                     "3753'59.845\"N" "-12338'18.039\"E"
##  6 collector(s): tom manning; preparator(s): amber baxter    "4316'30.427\"N" "-12312'32.023\"E"
##  7 caldwell, j. p. and vitt, l. j.                           "3432'20.508\"N" "-95 6'42.444\"E" 
##  8 collector(s): james l. patton                             "3658'15.564\"N" "-11954'16.740\"E"
##  9 collector(s): troy l. best; preparator(s): troy l. best   "3635' 5.813\"N" "-108 0'55.757\"E"
## 10 collector(s): karl j. martin; preparator(s): paul ollig   "4415'40.000\"N" "-12425' 1.000\"E"
## #  with 10,757 more rows
…
